

{
	"sProcessing":   "Esperar...",
	"sLengthMenu":   "Mostrar entradas _MENU_",
	"sZeroRecords":  "Nenhuma entrada.",
	"sInfo":         "Postagens de _START_ a _END_ de _TOTAL_ postagens",
	"sInfoEmpty":    "Registros de 0 a 0 de 0 registros",
	"sInfoFiltered": "(filtrado dos registros _MAX_)",
	"sInfoPostFix":  "",
	"sSearch":       "Procurar:",
	"sUrl":          "",
	"oPaginate": {
		"sFirst": "Primeiro",
		"sPrevious": "Anterior",
		"sNext": "Próximo",
		"sLast": "Último"
	},
	"oAria": {
		"sSortAscending":  ": ativar para classificar a coluna ascendente",
		"sSortDescending": ": ativar para classificar colunas descendentes"
	}
}
